…
### `select`

\#first verb in the dplyr pacakge For a given analysis, you may only
need a subset of the columns in a data table; extracting only what you
need can helpfully de-clutter, especially when you have large datasets.
Select columns using `select`. \#want to select specific COLUMNS

You can specify the columns you want to keep by naming all of them:

``` r
select(litters_data, group, litter_number, gd0_weight, pups_born_alive)
## # A tibble: 49 × 4
##   group litter_number gd0_weight pups_born_alive
##   <chr> <chr>              <dbl>           <dbl>
## 1 Con7  #85                 19.7               3
## 2 Con7  #1/2/95/2           27                 8
## 3 Con7  #5/5/3/83/3-3       26                 6
## # … with 46 more rows
```
…
\#not changing the dataset \#not overriding the dataset \#just in the
output when looking at the data it will be changed/manipulated \#don’t
want to override the original dataset \#if you want to save to a
dataset/dataframe, save the manipulation to another name

\#shortcut to listing a bunch of columns You can specify the specify a
range of columns to keep:

``` r
select(litters_data, group:gd_of_birth)
## # A tibble: 49 × 5
##   group litter_number gd0_weight gd18_weight gd_of_birth
##   <chr> <chr>              <dbl>       <dbl>       <dbl>
## 1 Con7  #85                 19.7        34.7          20
## 2 Con7  #1/2/95/2           27          42            19
## 3 Con7  #5/5/3/83/3-3       26          41.4          19
## # … with 46 more rows
```

\#select all the variables between group and gd_of_birth \#R is looking
at the positioning of the variables in the dataset \#in this example,
will take the first 5 columns

\#removing columnms You can also specify columns you’d like to remove:

``` r
select(litters_data, -pups_survive)
## # A tibble: 49 × 7
##   group litter_number gd0_weight gd18_weight gd_of_birth pups_born_alive pups_…¹
##   <chr> <chr>              <dbl>       <dbl>       <dbl>           <dbl>   <dbl>
## 1 Con7  #85                 19.7        34.7          20               3       4
## 2 Con7  #1/2/95/2           27          42            19               8       0
## 3 Con7  #5/5/3/83/3-3       26          41.4          19               6       0
## # … with 46 more rows, and abbreviated variable name ¹​pups_dead_birth
```

\#use the “-” sign in front of the colummn you would like to remove

You can rename variables as part of this process:

``` r
select(litters_data, GROUP = group, LiTtEr_NuMbEr = litter_number)
## # A tibble: 49 × 2
##   GROUP LiTtEr_NuMbEr
##   <chr> <chr>        
## 1 Con7  #85          
## 2 Con7  #1/2/95/2    
## 3 Con7  #5/5/3/83/3-3
## # … with 46 more rows
```

\#left side of the equal sign = name that it is currently listed under
\#right side of the equal sign = name that you would like to rename to

If all you want to do is rename something, you can use `rename` instead
of `select`. This will rename the variables you care about, and keep
everything else:

``` r
rename(litters_data, GROUP = group, LiTtEr_NuMbEr = litter_number)
## # A tibble: 49 × 8
##   GROUP LiTtEr_NuMbEr gd0_weight gd18_weight gd_of_birth pups_…¹ pups_…² pups_…³
##   <chr> <chr>              <dbl>       <dbl>       <dbl>   <dbl>   <dbl>   <dbl>
## 1 Con7  #85                 19.7        34.7          20       3       4       3
## 2 Con7  #1/2/95/2           27          42            19       8       0       7
## 3 Con7  #5/5/3/83/3-3       26          41.4          19       6       0       5
## # … with 46 more rows, and abbreviated variable names ¹​pups_born_alive,
## #   ²​pups_dead_birth, ³​pups_survive
```

There are some handy helper functions for `select`; read about all of
them using `?select_helpers`. I use `starts_with()`, `ends_with()`, and
`contains()` often, especially when there variables are named with
suffixes or other standard patterns:

``` r
select(litters_data, starts_with("gd"))
## # A tibble: 49 × 3
##   gd0_weight gd18_weight gd_of_birth
##        <dbl>       <dbl>       <dbl>
## 1       19.7        34.7          20
## 2       27          42            19
## 3       26          41.4          19
## # … with 46 more rows
select(litters_data, ends_with("weight"))
## # A tibble: 49 × 2
##   gd0_weight gd18_weight
##        <dbl>       <dbl>
## 1       19.7        34.7
## 2       27          42  
## 3       26          41.4
## # … with 46 more rows
```

I also frequently use is `everything()`, which is handy for reorganizing
columns without discarding anything:

``` r
select(litters_data, litter_number, pups_survive, everything())
## # A tibble: 49 × 8
##   litter_number pups_survive group gd0_weight gd18_wei…¹ gd_of…² pups_…³ pups_…⁴
##   <chr>                <dbl> <chr>      <dbl>      <dbl>   <dbl>   <dbl>   <dbl>
## 1 #85                      3 Con7        19.7       34.7      20       3       4
## 2 #1/2/95/2                7 Con7        27         42        19       8       0
## 3 #5/5/3/83/3-3            5 Con7        26         41.4      19       6       0
## # … with 46 more rows, and abbreviated variable names ¹​gd18_weight,
## #   ²​gd_of_birth, ³​pups_born_alive, ⁴​pups_dead_birth
```
…
\*`!((pups_survive == 4) & (gd_of_birth == 20))` \#take all of the rows
where all the number of pups_of_survive = 4 AND gd_of_birth = 28 \#they
will be dropped/filtered out

-   `group %in% c("Con7", "Con8")` \#select all the rows where group is
    equal to Con7 or Con8

-   `group == "Con7" & gd_of_birth == 20`

Let’s try one or two…

``` r
filter(litters_data, gd_of_birth == 20)
## # A tibble: 32 × 8
##   group litter_number gd0_weight gd18_weight gd_of_birth pups_…¹ pups_…² pups_…³
##   <chr> <chr>              <dbl>       <dbl>       <dbl>   <dbl>   <dbl>   <dbl>
## 1 Con7  #85                 19.7        34.7          20       3       4       3
## 2 Con7  #4/2/95/3-3         NA          NA            20       6       0       6
## 3 Con7  #2/2/95/3-2         NA          NA            20       6       0       4
## # … with 29 more rows, and abbreviated variable names ¹​pups_born_alive,
## #   ²​pups_dead_birth, ³​pups_survive
```
…
The example below creates a new variable measuring the difference
between `gd18_weight` and `gd0_weight` and modifies the existing `group`
variable.

``` r
#litter_data2 =
mutate(litters_data,
  wt_gain = gd18_weight - gd0_weight,
  group = str_to_lower(group),
 # wt_gain_kg = wt_gain * 2.2 can also include this step into this dataframe
 #R allows you to string together multiple functions and will carry them out
)
## # A tibble: 49 × 9
##   group litter_number gd0_weight gd18_…¹ gd_of…² pups_…³ pups_…⁴ pups_…⁵ wt_gain
##   <chr> <chr>              <dbl>   <dbl>   <dbl>   <dbl>   <dbl>   <dbl>   <dbl>
## 1 con7  #85                 19.7    34.7      20       3       4       3    15  
## 2 con7  #1/2/95/2           27      42        19       8       0       7    15  
## 3 con7  #5/5/3/83/3-3       26      41.4      19       6       0       5    15.4
## # … with 46 more rows, and abbreviated variable names ¹​gd18_weight,
## #   ²​gd_of_birth, ³​pups_born_alive, ⁴​pups_dead_birth, ⁵​pups_survive
```
…
``` r
litters_data_raw = read_csv("./data/FAS_litters.csv",
  col_types = "ccddiiii")
litters_data_clean_names = janitor::clean_names(litters_data_raw)
litters_data_selected_cols = select(litters_data_clean_names, -pups_survive)
litters_data_with_vars = 
  mutate(
    litters_data_selected_cols, 
    wt_gain = gd18_weight - gd0_weight,
    group = str_to_lower(group))
litters_data_with_vars_without_missing = 
  drop_na(litters_data_with_vars, wt_gain)
litters_data_with_vars_without_missing
## # A tibble: 31 × 8
##   group litter_number gd0_weight gd18_weight gd_of_birth pups_…¹ pups_…² wt_gain
##   <chr> <chr>              <dbl>       <dbl>       <int>   <int>   <int>   <dbl>
## 1 con7  #85                 19.7        34.7          20       3       4    15  
## 2 con7  #1/2/95/2           27          42            19       8       0    15  
## 3 con7  #5/5/3/83/3-3       26          41.4          19       6       0    15.4
## # … with 28 more rows, and abbreviated variable names ¹​pups_born_alive,
## #   ²​pups_dead_birth
```
…
  drop_na(
    mutate(
      select(
        janitor::clean_names(
          read_csv("./data/FAS_litters.csv", col_types = "ccddiiii")
          ), 
      -pups_survive
      ),
    wt_gain = gd18_weight - gd0_weight,
    group = str_to_lower(group)
    ),
  wt_gain
  )
litters_data_clean
## # A tibble: 31 × 8
##   group litter_number gd0_weight gd18_weight gd_of_birth pups_…¹ pups_…² wt_gain
##   <chr> <chr>              <dbl>       <dbl>       <int>   <int>   <int>   <dbl>
## 1 con7  #85                 19.7        34.7          20       3       4    15  
## 2 con7  #1/2/95/2           27          42            19       8       0    15  
## 3 con7  #5/5/3/83/3-3       26          41.4          19       6       0    15.4
## # … with 28 more rows, and abbreviated variable names ¹​pups_born_alive,
## #   ²​pups_dead_birth
```
…
litters_data = 
  #assigning all the following functions into this tibble called "litters_data"
  read_csv("./data/FAS_litters.csv", col_types = "ccddiiii") %>% 
      #creates tibble and " %>% " will pipe into the next function
  janitor::clean_names() %>% 
      #R knows the previous line is a tibble that will be used in this line
      #key to piping
  select(-pups_survive) %>%
  mutate(
    wt_gain = gd18_weight - gd0_weight,
    group = str_to_lower(group)) %>% 
  drop_na(wt_gain) #want to save this tibble and that is done on the first line
#results in one dataset 
litters_data
## # A tibble: 31 × 8
##   group litter_number gd0_weight gd18_weight gd_of_birth pups_…¹ pups_…² wt_gain
##   <chr> <chr>              <dbl>       <dbl>       <int>   <int>   <int>   <dbl>
## 1 con7  #85                 19.7        34.7          20       3       4    15  
## 2 con7  #1/2/95/2           27          42            19       8       0    15  
## 3 con7  #5/5/3/83/3-3       26          41.4          19       6       0    15.4
## # … with 28 more rows, and abbreviated variable names ¹​pups_born_alive,
## #   ²​pups_dead_birth
```
…
